<svg width="235" height="62" xmlns="http://www.w3.org/2000/svg">
 <!-- Created with Method Draw - http://github.com/duopixel/Method-Draw/ -->

 <g>
  <title>background</title>
  <rect x="-1" y="-1" width="237" height="64" id="canvas_background" fill="none"/>
 </g>
 <g>
  <title>Layer 1</title>
  <g id="obj_32" transform="matrix(0.9273024201393127,0,0,0.9273024201393127,73.66154838788509,33.46057322269581) " display="inline" stroke="null">
   <path d="m-2.81839,-5.92227l2.2898,-2.3381c0.2709,-0.277 0.192,-0.7861 -0.177,-1.1371l0,0c-0.368,-0.351 -0.8869,-0.411 -1.1569,-0.134l-2.2908,2.3381c-0.27,0.2771 -0.191,0.7861 0.177,1.1371l0,0c0.368,0.351 0.8869,0.41 1.1579,0.134z" fill="#f48a00" stroke-width="0.9" stroke-linecap="square" id="svg_2" stroke="null"/>
  </g>
  <g id="obj_33" transform="matrix(0.9273024201393127,0,0,0.9273024201393127,72.66098907655477,50.563739059745295) " display="inline" stroke="null">
   <path d="m-4.14489,-8.24577l2.3317,2.298c0.275,0.2719 0.793,0.2029 1.1549,-0.154l0,0c0.362,-0.357 0.432,-0.868 0.156,-1.139l-2.3307,-2.299c-0.276,-0.271 -0.794,-0.203 -1.1559,0.154l0,0c-0.362,0.357 -0.432,0.868 -0.156,1.14z" fill="#f48a00" stroke-width="0.9" stroke-linecap="square" id="svg_3" stroke="null"/>
  </g>
  <g id="obj_34" transform="matrix(0.9273024201393127,0,0,0.9273024201393127,64.77057278358936,54.23771124833725) " display="inline" stroke="null">
   <path d="m-4.31359,-9.00857l0,3.251c0,0.384 0.416,0.697 0.927,0.697l0,0c0.513,0 0.928,-0.313 0.928,-0.697l0,-3.251c0,-0.384 -0.415,-0.697 -0.928,-0.697l0,0c-0.511,0 -0.927,0.313 -0.927,0.697z" fill="#f48a00" stroke-width="0.9" stroke-linecap="square" id="svg_4" stroke="null"/>
  </g>
  <g id="obj_35" transform="matrix(0.9273024201393127,0,0,0.9273024201393127,76.08737151896953,43.71004687249563) " display="inline" stroke="null">
   <path d="m-0.30959,-9.70557l-3.298,0c-0.389,0 -0.706,0.41 -0.706,0.915l0,0c0,0.505 0.317,0.914 0.706,0.914l3.298,0c0.389,0 0.706,-0.409 0.706,-0.914l0,0c0,-0.505 -0.317,-0.915 -0.706,-0.915z" fill="#f48a00" stroke-width="0.9" stroke-linecap="square" id="svg_5" stroke="null"/>
  </g>
  <g id="obj_36" transform="matrix(0.9273024201393127,0,0,0.9273024201393127,64.57120276325941,27.945905730127315) " display="inline" stroke="null">
   <path d="m-4.31359,-9.00957l0,3.251c0,0.385 0.415,0.697 0.927,0.697l0,0c0.513,0 0.928,-0.312 0.928,-0.697l0,-3.251c0,-0.384 -0.415,-0.696 -0.928,-0.696l0,0c-0.512,0 -0.927,0.312 -0.927,0.696z" fill="#f48a00" stroke-width="0.9" stroke-linecap="square" id="svg_6" stroke="null"/>
  </g>
  <g id="obj_30" transform="matrix(-0.6557018294912049,0.655701829491205,-0.655701829491205,-0.6557018294912049,43.846247607341326,29.12289744177393) " display="inline" stroke="null">
   <path d="m-2.93271,9.91304l4.108,0c0.486,0 0.881,0.518 0.881,1.157l0,0c0,0.638 -0.395,1.156 -0.881,1.156l-4.108,0c-0.486,0 -0.88,-0.518 -0.88,-1.156l0,0c0,-0.639 0.394,-1.157 0.88,-1.157z" fill="#f48a00" stroke-width="0.9" stroke-linecap="square" id="svg_7" stroke="null"/>
  </g>
  <g id="obj_29" transform="matrix(-0.6441583880966596,-0.667045537756561,0.667045537756561,-0.6441583880966596,16.591702498387335,33.66993497253168) " display="inline" stroke="null">
   <path d="m10.85807,3.63912l4.108,0c0.486,0 0.881,0.518 0.881,1.156l0,0c0,0.639 -0.395,1.157 -0.88,1.157l-4.109,0c-0.486,0 -0.88,-0.518 -0.88,-1.157l0,0c0,-0.638 0.394,-1.156 0.88,-1.156z" fill="#f48a00" stroke-width="0.9" stroke-linecap="square" id="svg_8" stroke="null"/>
  </g>
  <g id="obj_28" transform="matrix(-0.6557018294912049,0.655701829491205,-0.655701829491205,-0.6557018294912049,18.97215168922908,52.23094590073086) " display="inline" stroke="null">
   <path d="m-2.93171,9.91304l4.108,0c0.486,0 0.881,0.518 0.881,1.156l0,0c0,0.639 -0.395,1.157 -0.881,1.157l-4.108,0c-0.486,0 -0.881,-0.518 -0.881,-1.157l0,0c0,-0.638 0.395,-1.156 0.881,-1.156z" fill="#f48a00" stroke-width="0.9" stroke-linecap="square" id="svg_9" stroke="null"/>
  </g>
  <g id="obj_27" transform="matrix(0,0.9273024201393127,-0.9273024201393127,0,28.832967491090297,55.740868471383074) " display="inline" stroke="null">
   <path d="m-8.82557,4.31359l4.109,0c0.485,0 0.88,0.518 0.88,1.156l0,0c0,0.639 -0.395,1.157 -0.88,1.157l-4.109,0c-0.485,0 -0.88,-0.518 -0.88,-1.157l0,0c0,-0.638 0.395,-1.156 0.88,-1.156z" fill="#f48a00" stroke-width="0.9" stroke-linecap="square" id="svg_10" stroke="null"/>
  </g>
  <g id="obj_26" transform="matrix(0.9273024201393127,0,0,0.9273024201393127,8.87649210727215,41.60136116909884) " display="inline" stroke="null">
   <path d="m-3.43359,-9.70557l4.109,0c0.485,0 0.88,0.518 0.88,1.156l0,0c0,0.638 -0.395,1.156 -0.88,1.156l-4.109,0c-0.485,0 -0.88,-0.518 -0.88,-1.156l0,0c0,-0.638 0.395,-1.156 0.88,-1.156z" fill="#f48a00" stroke-width="0.9" stroke-linecap="square" id="svg_11" stroke="null"/>
  </g>
  <g id="obj_39" transform="matrix(0.9273024201393127,0,0,0.9273024201393127,37.93722265201807,43.163865747033576) " display="inline" stroke="null">
   <path d="m0.48841,-9.70557c2.651,0 4.802,2.231 4.802,4.98c0,2.749 -2.151,4.98 -4.802,4.98c-2.651,0 -4.802,-2.231 -4.802,-4.98c0,-2.749 2.151,-4.98 4.802,-4.98z" fill="#000000" stroke-width="0" stroke-linecap="square" id="svg_12" stroke="#000000"/>
  </g>
  <g id="obj_25" transform="matrix(0,0.9273024201393127,-0.9273024201393127,0,29.49227951180935,21.6782686724057) " display="inline" stroke="null">
   <path d="m-8.82457,4.31359l4.108,0c0.486,0 0.881,0.518 0.881,1.156l0,0c0,0.638 -0.395,1.156 -0.881,1.156l-4.108,0c-0.486,0 -0.881,-0.518 -0.881,-1.156l0,0c0,-0.638 0.395,-1.156 0.881,-1.156z" fill="#f48a00" stroke-width="0.9" stroke-linecap="square" id="svg_13" stroke="null"/>
  </g>
  <g id="obj_20" transform="matrix(0.9273024201393127,0,0,0.9273024201393127,49.089888859033586,43.50140382796429) " display="inline" stroke="null">
   <path d="m0.74517,-9.70557c2.651,0 4.802,2.231 4.802,4.98c0,2.749 -2.151,4.98 -4.802,4.98c-2.651,0 -4.802,-2.231 -4.802,-4.98c0,-2.749 2.151,-4.98 4.802,-4.98z" fill="#000000" stroke-width="0" stroke-linecap="square" id="svg_14" stroke="#000000"/>
  </g>
  <g id="obj_16" transform="matrix(0.9273024201393127,0,0,0.9273024201393127,6,18.975182117699603) " display="inline" stroke="null">
   <path d="m59.42641,-3.44757c-7.13,0.003 -13.364,3.753 -16.892,9.376c-3.471,-9.13 -12.276,-15.63 -22.626,-15.634c-13.376,0.006 -24.222,10.849 -24.222,24.227c0,13.379 10.846,24.222 24.222,24.222c5.219,0 10.04,-1.666 13.994,-4.473l6.344,10.036c0.404,0.637 1.101,1.021 1.851,1.021c0.029,0 0.058,-0.002 0.088,-0.002c0.785,-0.029 1.488,-0.469 1.857,-1.163l5.511,-10.357c2.913,1.666 6.277,2.631 9.874,2.632c11.015,-0.004 19.941,-8.928 19.946,-19.941c-0.006,-11.015 -8.932,-19.94 -19.947,-19.944zm-58.762,17.969c0.022,-10.629 8.617,-19.227 19.244,-19.245c10.63,0.018 19.226,8.614 19.242,19.245c-0.016,10.627 -8.611,19.226 -19.242,19.244c-10.627,-0.018 -19.223,-8.617 -19.244,-19.244zm41.275,24.245l-4.663,-7.378c1.728,-1.778 3.172,-3.824 4.291,-6.063c1.1,2.221 2.597,4.2 4.407,5.859l-4.035,7.582zm17.487,-7.308c-8.264,-0.015 -14.949,-6.696 -14.961,-14.961c0.012,-8.266 6.697,-14.951 14.961,-14.964c8.265,0.015 14.948,6.7 14.963,14.964c-0.015,8.265 -6.698,14.946 -14.963,14.961z" fill="#FFB300" stroke-linecap="square" id="svg_15" stroke="null"/>
  </g>
  <g id="obj_17" transform="matrix(0.9273024201393127,0,0,0.9273024201393127,26.193864803373813,10.9929628851404) " display="inline" stroke="null">
   <path d="m21.00871,6.62943c-6.381,-7.5849 -16.233,-10.2598 -20.72,-11.0368l0,0c-1.489,-0.266 -2.297,-0.323 -2.299,-0.323l0,0l0.002,0c-1.3741,-0.106 -2.4021,-1.299 -2.2981,-2.674l0,0c0.106,-1.37 1.302,-2.398 2.6741,-2.294l0,0c0.231,0.065 14.653,1.015 24.911,11.4409l0,0c2.98,-1.925 9.1921,-5.3379 16.6131,-5.8189l0,0c1.371,-0.083 2.549,0.965 2.631,2.3359l0,0c0.083,1.372 -0.968,2.55 -2.339,2.633l0,0c-6.274,0.348 -12.122,3.6319 -14.5451,5.2499l0,0c-0.81,0.535 -1.199,0.838 -1.203,0.838l0,0c-0.455,0.355 -0.994,0.529 -1.531,0.529l0,0c-0.706,0 -1.406,-0.3 -1.896,-0.88z" fill="#FFB300" stroke-linecap="square" id="svg_16" stroke="null"/>
  </g>
  <g id="obj_21" transform="matrix(0.44956513416124955,-0.8110369711318987,0.8110369711318987,0.44956513416124955,24.074677060329623,40.42487181549491) " display="inline" stroke="null">
   <path d="m9.35042,-8.4781l1.476,8.066l1.477,8.066l-2.953,0l-2.953,0l1.476,-8.066l1.477,-8.066z" fill="#000000" stroke-linecap="square" id="svg_17" stroke="#000000" stroke-width="0"/>
  </g>
  <g id="obj_22" transform="matrix(0.3623259210718685,0.8535863783564313,-0.8535863783564313,0.3623259210718685,68.65110065884986,40.194758435996675) " display="inline" stroke="null">
   <path d="m-9.20748,0.17841l0.706,6.46l0.706,6.46l-1.412,0l-1.412,0l0.706,-6.46l0.706,-6.46z" fill="#000000" stroke-linecap="square" id="svg_18" stroke="#000000" stroke-width="0"/>
  </g>
  <g id="obj_40" transform="matrix(0.9273024201393127,0,0,0.9273024201393127,86.0809097008109,44.1857530140271) " display="inline" stroke="null">
   <path d="m1.87692,4.72943c-0.166,0 -0.36,-0.018 -0.581,-0.054c-0.222,-0.036 -0.45,-0.112 -0.685,-0.228c-0.235,-0.117 -0.466,-0.281 -0.693,-0.494c-0.227,-0.213 -0.431,-0.496 -0.61,-0.847c-0.18,-0.351 -0.326,-0.783 -0.436,-1.295c-0.111,-0.512 -0.166,-1.122 -0.166,-1.83l0,-5.022c0,-0.714 0.058,-1.324 0.174,-1.831c0.116,-0.506 0.271,-0.932 0.465,-1.278c0.194,-0.346 0.416,-0.621 0.668,-0.826c0.252,-0.205 0.513,-0.361 0.785,-0.469c0.271,-0.108 0.539,-0.178 0.805,-0.211c0.265,-0.034 0.512,-0.05 0.739,-0.05c0.575,0 1.061,0.079 1.456,0.236c0.396,0.158 0.717,0.374 0.963,0.648c0.246,0.274 0.424,0.593 0.531,0.959c0.108,0.365 0.162,0.752 0.162,1.162c0,0.304 -0.018,0.585 -0.054,0.842c-0.036,0.257 -0.084,0.541 -0.145,0.851l-1.718,0l0,-0.672c0,-1.555 -0.418,-2.333 -1.254,-2.333c-0.226,0 -0.423,0.039 -0.589,0.116c-0.166,0.078 -0.304,0.209 -0.415,0.395c-0.111,0.185 -0.192,0.43 -0.245,0.734c-0.052,0.305 -0.079,0.684 -0.079,1.137l0,6.425c0,0.443 0.027,0.811 0.079,1.104c0.053,0.294 0.133,0.529 0.241,0.706c0.108,0.177 0.243,0.303 0.407,0.377c0.163,0.075 0.358,0.113 0.585,0.113c0.238,0 0.443,-0.063 0.614,-0.187c0.172,-0.125 0.313,-0.295 0.423,-0.511c0.111,-0.216 0.193,-0.47 0.245,-0.763c0.053,-0.294 0.079,-0.612 0.079,-0.955l0,-1.851l-1.104,0l0,-1.411l3.196,0l0,7.18l-1.428,0l-0.232,-1.345c-0.271,0.526 -0.583,0.904 -0.934,1.133c-0.351,0.23 -0.768,0.345 -1.249,0.345zm8.965,-0.008c-0.227,0 -0.474,-0.018 -0.739,-0.054c-0.266,-0.036 -0.529,-0.113 -0.789,-0.229c-0.26,-0.116 -0.51,-0.281 -0.751,-0.494c-0.241,-0.213 -0.454,-0.494 -0.639,-0.842c-0.186,-0.349 -0.334,-0.779 -0.444,-1.291c-0.111,-0.512 -0.166,-1.122 -0.166,-1.83l0,-5.022c0,-0.714 0.056,-1.324 0.17,-1.831c0.113,-0.506 0.264,-0.932 0.452,-1.278c0.188,-0.346 0.403,-0.621 0.644,-0.826c0.24,-0.205 0.492,-0.361 0.755,-0.469c0.263,-0.108 0.524,-0.178 0.784,-0.211c0.26,-0.034 0.501,-0.05 0.723,-0.05c0.21,0 0.444,0.015 0.701,0.045c0.257,0.031 0.515,0.097 0.772,0.2c0.257,0.102 0.508,0.254 0.751,0.456c0.244,0.202 0.459,0.476 0.648,0.822c0.188,0.346 0.339,0.775 0.452,1.287c0.113,0.511 0.17,1.13 0.17,1.855l0,5.022c0,0.703 -0.058,1.307 -0.174,1.813c-0.116,0.507 -0.269,0.936 -0.457,1.287c-0.188,0.352 -0.405,0.634 -0.651,0.847c-0.247,0.213 -0.498,0.379 -0.756,0.498c-0.257,0.119 -0.513,0.198 -0.768,0.236c-0.254,0.039 -0.484,0.059 -0.688,0.059m0,-1.619c0.21,0 0.394,-0.036 0.552,-0.108c0.157,-0.072 0.287,-0.197 0.39,-0.374c0.102,-0.177 0.18,-0.41 0.232,-0.701c0.053,-0.291 0.079,-0.657 0.079,-1.1l0,-6.45c0,-0.453 -0.026,-0.832 -0.079,-1.137c-0.052,-0.304 -0.13,-0.549 -0.232,-0.734c-0.103,-0.186 -0.233,-0.317 -0.39,-0.395c-0.158,-0.077 -0.342,-0.116 -0.552,-0.116c-0.216,0 -0.404,0.039 -0.565,0.116c-0.16,0.078 -0.293,0.209 -0.398,0.395c-0.106,0.185 -0.184,0.43 -0.237,0.734c-0.053,0.305 -0.079,0.684 -0.079,1.137l0,6.45c0,0.443 0.026,0.809 0.079,1.1c0.053,0.291 0.131,0.524 0.237,0.701c0.105,0.177 0.238,0.302 0.398,0.374c0.161,0.072 0.349,0.108 0.565,0.108zm4.474,-12.684l2.199,0l1.561,11.231l0.091,0l1.569,-11.231l2.191,0l-2.581,14.178l-2.457,0l-2.573,-14.178zm8.981,0l5.254,0l0,1.694l-3.104,0l0,4.241l2.399,0l0,1.694l-2.399,0l0,4.856l3.187,0l0,1.693l-5.337,0l0,-14.178zm6.89,0l2.332,0c0.266,0 0.558,0.011 0.876,0.033c0.318,0.023 0.636,0.077 0.955,0.162c0.318,0.086 0.625,0.215 0.921,0.386c0.296,0.172 0.559,0.407 0.789,0.706c0.229,0.299 0.413,0.674 0.552,1.125c0.138,0.451 0.207,0.997 0.207,1.639l0,0.357c0,1.079 -0.155,1.958 -0.465,2.635c-0.31,0.678 -0.766,1.167 -1.369,1.466l2.274,5.669l-2.274,0l-1.885,-5.304l-0.805,0l0,5.304l-2.108,0l0,-14.178m2.432,7.322c0.376,0 0.694,-0.042 0.954,-0.125c0.261,-0.083 0.471,-0.223 0.631,-0.419c0.161,-0.197 0.277,-0.457 0.349,-0.78c0.072,-0.324 0.108,-0.724 0.108,-1.2l0,-1.12c0,-0.366 -0.033,-0.681 -0.1,-0.947c-0.066,-0.265 -0.178,-0.484 -0.336,-0.656c-0.158,-0.171 -0.367,-0.298 -0.627,-0.381c-0.26,-0.083 -0.586,-0.125 -0.979,-0.125l-0.324,0l0,5.753l0.324,0zm6.267,-7.322l1.743,0l3.437,9.488l0.049,0c-0.016,-0.221 -0.038,-0.468 -0.066,-0.739c-0.028,-0.271 -0.053,-0.579 -0.075,-0.925c-0.022,-0.346 -0.041,-0.738 -0.058,-1.175c-0.016,-0.437 -0.025,-0.929 -0.025,-1.477l0,-5.172l1.926,0l0,14.178l-1.76,0l-3.42,-9.239l-0.066,0c0.017,0.249 0.039,0.519 0.066,0.81c0.028,0.29 0.053,0.632 0.075,1.025c0.022,0.393 0.042,0.851 0.058,1.373c0.017,0.523 0.025,1.145 0.025,1.864l0,4.167l-1.909,0l0,-14.178zm10.915,0l2.474,0l2.623,14.178l-2.175,0l-0.39,-2.54l-2.59,0l-0.373,2.54l-2.183,0l2.614,-14.178m2.283,10.019l-0.996,-7.064l-0.091,0l-1.005,7.064l2.092,0zm4.184,-10.019l1.743,0l3.436,9.488l0.05,0c-0.016,-0.221 -0.038,-0.468 -0.066,-0.739c-0.028,-0.271 -0.053,-0.579 -0.075,-0.925c-0.022,-0.346 -0.041,-0.738 -0.058,-1.175c-0.017,-0.437 -0.025,-0.929 -0.025,-1.477l0,-5.172l1.926,0l0,14.178l-1.76,0l-3.42,-9.239l-0.066,0c0.016,0.249 0.039,0.519 0.066,0.81c0.028,0.29 0.053,0.632 0.075,1.025c0.022,0.393 0.041,0.851 0.058,1.373c0.017,0.523 0.025,1.145 0.025,1.864l0,4.167l-1.909,0l0,-14.178zm12.409,14.303c-0.221,0 -0.46,-0.018 -0.718,-0.054c-0.257,-0.036 -0.514,-0.113 -0.772,-0.229c-0.257,-0.116 -0.503,-0.281 -0.738,-0.494c-0.235,-0.213 -0.443,-0.494 -0.623,-0.842c-0.18,-0.349 -0.324,-0.779 -0.431,-1.291c-0.108,-0.512 -0.162,-1.122 -0.162,-1.83l0,-5.022c0,-0.714 0.055,-1.324 0.166,-1.831c0.11,-0.506 0.257,-0.932 0.44,-1.278c0.182,-0.346 0.393,-0.621 0.63,-0.826c0.238,-0.205 0.485,-0.361 0.739,-0.469c0.255,-0.108 0.508,-0.178 0.76,-0.211c0.252,-0.034 0.485,-0.05 0.701,-0.05c0.565,0 1.036,0.079 1.415,0.236c0.38,0.158 0.684,0.374 0.914,0.648c0.229,0.274 0.392,0.593 0.489,0.959c0.097,0.365 0.146,0.752 0.146,1.162c0,0.304 -0.016,0.585 -0.046,0.842c-0.031,0.257 -0.076,0.541 -0.137,0.851l-1.743,0l0,-0.722c0,-0.78 -0.086,-1.364 -0.258,-1.752c-0.171,-0.387 -0.423,-0.581 -0.755,-0.581c-0.199,0 -0.373,0.039 -0.523,0.117c-0.149,0.077 -0.274,0.208 -0.373,0.394c-0.1,0.185 -0.176,0.43 -0.229,0.734c-0.052,0.305 -0.079,0.684 -0.079,1.138l0,6.474c0,0.443 0.021,0.811 0.063,1.104c0.041,0.294 0.109,0.529 0.203,0.706c0.094,0.177 0.217,0.303 0.369,0.377c0.153,0.075 0.337,0.113 0.552,0.113c0.139,0 0.272,-0.032 0.399,-0.096c0.127,-0.064 0.239,-0.163 0.336,-0.299c0.097,-0.135 0.174,-0.307 0.233,-0.514c0.058,-0.208 0.087,-0.453 0.087,-0.735l0,-1.386l1.967,0l0,1.311c0,1.14 -0.26,1.981 -0.78,2.524c-0.521,0.542 -1.268,0.816 -2.242,0.822zm4.715,-14.303l5.255,0l0,1.694l-3.105,0l0,4.241l2.399,0l0,1.694l-2.399,0l0,4.856l3.188,0l0,1.693l-5.338,0l0,-14.178zm10.526,0l2.233,0c0.337,0 0.687,0.01 1.05,0.029c0.362,0.02 0.716,0.079 1.062,0.179c0.346,0.099 0.673,0.253 0.98,0.46c0.307,0.208 0.577,0.499 0.809,0.872c0.232,0.374 0.416,0.844 0.552,1.411c0.136,0.567 0.203,1.261 0.203,2.08l0,4.117c0,0.819 -0.067,1.513 -0.203,2.083c-0.136,0.57 -0.32,1.041 -0.552,1.411c-0.232,0.371 -0.502,0.66 -0.809,0.868c-0.307,0.207 -0.634,0.361 -0.98,0.46c-0.346,0.1 -0.7,0.16 -1.062,0.179c-0.363,0.019 -0.713,0.029 -1.05,0.029l-2.233,0l0,-14.178m2.697,12.676c0.388,0 0.707,-0.05 0.959,-0.15c0.252,-0.099 0.451,-0.275 0.598,-0.527c0.146,-0.252 0.247,-0.595 0.303,-1.029c0.055,-0.435 0.083,-0.984 0.083,-1.648l0,-4.399c0,-0.664 -0.028,-1.214 -0.083,-1.648c-0.056,-0.434 -0.157,-0.778 -0.303,-1.029c-0.147,-0.252 -0.346,-0.428 -0.598,-0.527c-0.252,-0.1 -0.571,-0.15 -0.959,-0.15l-0.547,0l0,11.107l0.547,0zm7.67,-12.676l2.474,0l2.623,14.178l-2.175,0l-0.39,-2.54l-2.59,0l-0.373,2.54l-2.183,0l2.614,-14.178m2.283,10.019l-0.996,-7.064l-0.091,0l-1.005,7.064l2.092,0zm3.636,1.287c0,-0.304 0.018,-0.585 0.054,-0.843c0.036,-0.257 0.09,-0.535 0.162,-0.834l1.668,0l0,0.689c0,0.382 0.024,0.72 0.071,1.013c0.047,0.293 0.124,0.541 0.232,0.743c0.108,0.202 0.252,0.354 0.432,0.456c0.18,0.103 0.4,0.154 0.66,0.154c0.409,0 0.722,-0.112 0.938,-0.336c0.215,-0.224 0.323,-0.552 0.323,-0.984c0,-0.221 -0.015,-0.425 -0.045,-0.61c-0.031,-0.185 -0.083,-0.369 -0.158,-0.552c-0.075,-0.183 -0.176,-0.375 -0.303,-0.577c-0.127,-0.202 -0.291,-0.427 -0.49,-0.676l-2.241,-2.665c-0.398,-0.509 -0.706,-1.022 -0.921,-1.54c-0.216,-0.517 -0.324,-1.069 -0.324,-1.656c0,-0.47 0.073,-0.902 0.22,-1.295c0.147,-0.393 0.358,-0.732 0.635,-1.017c0.277,-0.285 0.618,-0.506 1.025,-0.664c0.407,-0.157 0.867,-0.236 1.382,-0.236c0.625,0 1.147,0.088 1.565,0.265c0.418,0.177 0.751,0.41 1,0.698c0.249,0.287 0.425,0.61 0.527,0.967c0.103,0.357 0.154,0.715 0.154,1.075c0,0.304 -0.024,0.585 -0.071,0.842c-0.047,0.257 -0.101,0.541 -0.162,0.851l-1.66,0l0,-0.672c0,-0.753 -0.108,-1.33 -0.324,-1.731c-0.215,-0.401 -0.567,-0.602 -1.054,-0.602c-0.404,0 -0.705,0.112 -0.905,0.336c-0.199,0.224 -0.298,0.525 -0.298,0.901c0,0.199 0.015,0.379 0.045,0.539c0.031,0.161 0.075,0.309 0.133,0.445c0.058,0.135 0.129,0.267 0.212,0.394c0.083,0.127 0.177,0.26 0.282,0.398l2.499,3.022c0.453,0.592 0.802,1.161 1.045,1.706c0.244,0.545 0.366,1.122 0.366,1.73c0,0.504 -0.079,0.958 -0.237,1.362c-0.158,0.404 -0.383,0.747 -0.676,1.029c-0.294,0.282 -0.648,0.499 -1.063,0.652c-0.415,0.152 -0.883,0.228 -1.403,0.228c-0.642,0 -1.174,-0.086 -1.598,-0.258c-0.423,-0.171 -0.761,-0.398 -1.012,-0.68c-0.252,-0.282 -0.429,-0.603 -0.532,-0.963c-0.102,-0.36 -0.153,-0.728 -0.153,-1.104zm8.483,-11.306l2.15,0l0,5.935l2.548,0l0,-5.935l2.15,0l0,14.178l-2.15,0l0,-6.549l-2.548,0l0,6.549l-2.15,0l0,-14.178zm9.289,0l2.175,0c0.321,0 0.653,0.011 0.996,0.033c0.343,0.023 0.678,0.07 1.004,0.142c0.327,0.072 0.636,0.178 0.93,0.319c0.293,0.141 0.549,0.331 0.768,0.569c0.218,0.238 0.393,0.532 0.523,0.884c0.13,0.351 0.195,0.773 0.195,1.266l0,0.689c0,0.376 -0.054,0.722 -0.162,1.037c-0.108,0.316 -0.251,0.594 -0.428,0.834c-0.177,0.241 -0.379,0.44 -0.606,0.598c-0.227,0.158 -0.459,0.264 -0.697,0.32l0,0.066c0.703,0.127 1.233,0.461 1.59,1c0.357,0.54 0.535,1.23 0.535,2.071l0,0.723c0,0.514 -0.057,0.961 -0.17,1.34c-0.114,0.379 -0.273,0.703 -0.477,0.971c-0.205,0.269 -0.449,0.489 -0.731,0.66c-0.282,0.172 -0.592,0.306 -0.93,0.403c-0.337,0.097 -0.697,0.163 -1.079,0.199c-0.382,0.036 -0.774,0.054 -1.178,0.054l-2.258,0l0,-14.178m2.523,6.068c0.288,0 0.551,-0.034 0.789,-0.104c0.238,-0.069 0.441,-0.177 0.61,-0.323c0.169,-0.147 0.299,-0.338 0.39,-0.573c0.091,-0.235 0.137,-0.519 0.137,-0.851l0,-0.581c0,-0.332 -0.033,-0.625 -0.1,-0.88c-0.066,-0.254 -0.175,-0.47 -0.327,-0.647c-0.153,-0.177 -0.352,-0.312 -0.598,-0.403c-0.246,-0.091 -0.547,-0.137 -0.901,-0.137l-0.415,0l0,4.499l0.415,0m0.199,6.616c0.288,0 0.55,-0.037 0.785,-0.112c0.235,-0.075 0.437,-0.191 0.606,-0.349c0.169,-0.158 0.299,-0.358 0.39,-0.602c0.091,-0.243 0.137,-0.531 0.137,-0.863l0,-1.104c0,-0.332 -0.033,-0.627 -0.1,-0.884c-0.066,-0.257 -0.175,-0.473 -0.328,-0.647c-0.152,-0.175 -0.35,-0.308 -0.593,-0.399c-0.244,-0.091 -0.542,-0.137 -0.897,-0.137l-0.614,0l0,5.097l0.614,0zm9.106,1.619c-0.226,0 -0.473,-0.018 -0.738,-0.054c-0.266,-0.036 -0.529,-0.113 -0.789,-0.229c-0.26,-0.116 -0.51,-0.281 -0.751,-0.494c-0.241,-0.213 -0.454,-0.494 -0.639,-0.842c-0.186,-0.349 -0.334,-0.779 -0.444,-1.291c-0.111,-0.512 -0.166,-1.122 -0.166,-1.83l0,-5.022c0,-0.714 0.056,-1.324 0.17,-1.831c0.113,-0.506 0.264,-0.932 0.452,-1.278c0.188,-0.346 0.403,-0.621 0.643,-0.826c0.241,-0.205 0.493,-0.361 0.756,-0.469c0.263,-0.108 0.524,-0.178 0.784,-0.211c0.26,-0.034 0.501,-0.05 0.722,-0.05c0.211,0 0.445,0.015 0.702,0.045c0.257,0.031 0.514,0.097 0.772,0.2c0.257,0.102 0.508,0.254 0.751,0.456c0.244,0.202 0.459,0.476 0.647,0.822c0.189,0.346 0.339,0.775 0.453,1.287c0.113,0.511 0.17,1.13 0.17,1.855l0,5.022c0,0.703 -0.058,1.307 -0.174,1.813c-0.116,0.507 -0.269,0.936 -0.457,1.287c-0.188,0.352 -0.405,0.634 -0.651,0.847c-0.247,0.213 -0.498,0.379 -0.756,0.498c-0.257,0.119 -0.513,0.198 -0.768,0.236c-0.254,0.039 -0.484,0.059 -0.689,0.059m0,-1.619c0.211,0 0.395,-0.036 0.552,-0.108c0.158,-0.072 0.288,-0.197 0.391,-0.374c0.102,-0.177 0.179,-0.41 0.232,-0.701c0.053,-0.291 0.079,-0.657 0.079,-1.1l0,-6.45c0,-0.453 -0.026,-0.832 -0.079,-1.137c-0.053,-0.304 -0.13,-0.549 -0.232,-0.734c-0.103,-0.186 -0.233,-0.317 -0.391,-0.395c-0.157,-0.077 -0.341,-0.116 -0.552,-0.116c-0.215,0 -0.404,0.039 -0.564,0.116c-0.161,0.078 -0.293,0.209 -0.398,0.395c-0.106,0.185 -0.184,0.43 -0.237,0.734c-0.053,0.305 -0.079,0.684 -0.079,1.137l0,6.45c0,0.443 0.026,0.809 0.079,1.1c0.053,0.291 0.131,0.524 0.237,0.701c0.105,0.177 0.237,0.302 0.398,0.374c0.16,0.072 0.349,0.108 0.564,0.108zm7.089,-12.684l2.474,0l2.623,14.178l-2.175,0l-0.39,-2.54l-2.59,0l-0.373,2.54l-2.183,0l2.614,-14.178m2.283,10.019l-0.996,-7.064l-0.091,0l-1.005,7.064l2.092,0zm4.184,-10.019l2.332,0c0.266,0 0.558,0.011 0.876,0.033c0.318,0.023 0.636,0.077 0.954,0.162c0.319,0.086 0.626,0.215 0.922,0.386c0.296,0.172 0.559,0.407 0.788,0.706c0.23,0.299 0.414,0.674 0.552,1.125c0.139,0.451 0.208,0.997 0.208,1.639l0,0.357c0,1.079 -0.155,1.958 -0.465,2.635c-0.31,0.678 -0.766,1.167 -1.37,1.466l2.275,5.669l-2.275,0l-1.884,-5.304l-0.805,0l0,5.304l-2.108,0l0,-14.178m2.432,7.322c0.376,0 0.694,-0.042 0.954,-0.125c0.26,-0.083 0.471,-0.223 0.631,-0.419c0.161,-0.197 0.277,-0.457 0.349,-0.78c0.072,-0.324 0.108,-0.724 0.108,-1.2l0,-1.12c0,-0.366 -0.033,-0.681 -0.1,-0.947c-0.066,-0.265 -0.178,-0.484 -0.336,-0.656c-0.158,-0.171 -0.367,-0.298 -0.627,-0.381c-0.26,-0.083 -0.586,-0.125 -0.979,-0.125l-0.324,0l0,5.753l0.324,0zm6.267,-7.322l2.233,0c0.337,0 0.687,0.01 1.05,0.029c0.362,0.02 0.716,0.079 1.062,0.179c0.346,0.099 0.673,0.253 0.98,0.46c0.307,0.208 0.577,0.499 0.809,0.872c0.233,0.374 0.417,0.844 0.552,1.411c0.136,0.567 0.203,1.261 0.203,2.08l0,4.117c0,0.819 -0.067,1.513 -0.203,2.083c-0.135,0.57 -0.319,1.041 -0.552,1.411c-0.232,0.371 -0.502,0.66 -0.809,0.868c-0.307,0.207 -0.634,0.361 -0.98,0.46c-0.346,0.1 -0.7,0.16 -1.062,0.179c-0.363,0.019 -0.713,0.029 -1.05,0.029l-2.233,0l0,-14.178m2.698,12.676c0.387,0 0.707,-0.05 0.958,-0.15c0.252,-0.099 0.451,-0.275 0.598,-0.527c0.147,-0.252 0.248,-0.595 0.303,-1.029c0.055,-0.435 0.083,-0.984 0.083,-1.648l0,-4.399c0,-0.664 -0.028,-1.214 -0.083,-1.648c-0.055,-0.434 -0.156,-0.778 -0.303,-1.029c-0.147,-0.252 -0.346,-0.428 -0.598,-0.527c-0.251,-0.1 -0.571,-0.15 -0.958,-0.15l-0.548,0l0,11.107l0.548,0z" fill="#000000" stroke-linecap="square" id="svg_19" stroke="null"/>
  </g>
  <g id="obj_41" transform="matrix(0.9273024201393127,0,0,0.9273024201393127,87.04901342743636,17.935676104723434) " display="inline" stroke="null">
   <path d="m1.33092,-7.51757l0,19.25l-2.625,0l0,-21l4.375,0l12.236,18.375l12.237,-18.375l4.183,0l0,21l-2.625,0l0,-18.963l-12.468,18.963l-2.653,0l-12.66,-19.25zm52.295,-2.188c1.604,0 2.955,0.098 4.054,0.294c1.098,0.196 2.003,0.493 2.714,0.889c0.71,0.397 1.257,0.896 1.64,1.497c0.383,0.602 0.663,1.308 0.841,2.119c0.178,0.812 0.282,1.728 0.314,2.748c0.032,1.021 0.048,2.151 0.048,3.391c0,1.24 -0.016,2.37 -0.048,3.391c-0.032,1.02 -0.136,1.936 -0.314,2.748c-0.178,0.811 -0.458,1.517 -0.841,2.119c-0.383,0.601 -0.93,1.1 -1.64,1.497c-0.711,0.396 -1.616,0.693 -2.714,0.889c-1.099,0.196 -2.45,0.294 -4.054,0.294l-7.902,0c-1.605,0 -2.956,-0.098 -4.054,-0.294c-1.098,-0.196 -2.003,-0.493 -2.714,-0.889c-0.711,-0.397 -1.26,-0.896 -1.647,-1.497c-0.388,-0.602 -0.67,-1.308 -0.848,-2.119c-0.178,-0.812 -0.28,-1.728 -0.308,-2.748c-0.027,-1.021 -0.041,-2.151 -0.041,-3.391c0,-1.24 0.014,-2.37 0.041,-3.391c0.028,-1.02 0.13,-1.936 0.308,-2.748c0.178,-0.811 0.46,-1.517 0.848,-2.119c0.387,-0.601 0.936,-1.1 1.647,-1.497c0.711,-0.396 1.616,-0.693 2.714,-0.889c1.098,-0.196 2.449,-0.294 4.054,-0.294l7.902,0m0,19.688c1.157,0 2.135,-0.034 2.933,-0.103c0.797,-0.068 1.456,-0.207 1.975,-0.417c0.52,-0.209 0.921,-0.51 1.203,-0.902c0.283,-0.392 0.488,-0.911 0.615,-1.558c0.128,-0.648 0.203,-1.443 0.226,-2.386c0.023,-0.944 0.034,-2.072 0.034,-3.384c0,-1.313 -0.011,-2.44 -0.034,-3.384c-0.023,-0.943 -0.098,-1.738 -0.226,-2.386c-0.127,-0.647 -0.332,-1.166 -0.615,-1.558c-0.282,-0.392 -0.681,-0.693 -1.196,-0.902c-0.515,-0.21 -1.171,-0.349 -1.969,-0.417c-0.797,-0.069 -1.779,-0.103 -2.946,-0.103l-7.902,0c-1.167,0 -2.149,0.034 -2.947,0.103c-0.797,0.068 -1.456,0.207 -1.975,0.417c-0.52,0.209 -0.921,0.51 -1.203,0.902c-0.283,0.392 -0.488,0.911 -0.616,1.558c-0.127,0.648 -0.2,1.443 -0.218,2.386c-0.019,0.944 -0.028,2.071 -0.028,3.384c0,1.312 0.012,2.44 0.034,3.384c0.023,0.943 0.098,1.738 0.226,2.386c0.128,0.647 0.33,1.166 0.608,1.558c0.278,0.392 0.677,0.693 1.197,0.902c0.519,0.21 1.178,0.349 1.975,0.417c0.798,0.069 1.78,0.103 2.947,0.103l7.902,0zm27.221,-10.063c1.44,0 2.675,0.06 3.705,0.178c1.03,0.119 1.898,0.294 2.604,0.527c0.707,0.232 1.269,0.521 1.689,0.868c0.419,0.346 0.743,0.74 0.97,1.182c0.228,0.442 0.376,0.937 0.445,1.484c0.068,0.547 0.102,1.139 0.102,1.777c0,0.638 -0.057,1.237 -0.171,1.798c-0.114,0.561 -0.316,1.073 -0.608,1.538c-0.292,0.465 -0.688,0.88 -1.189,1.244c-0.502,0.365 -1.14,0.675 -1.915,0.93c-0.774,0.255 -1.706,0.449 -2.795,0.581c-1.09,0.132 -2.363,0.198 -3.822,0.198l-3.5,0c-1.312,0 -2.461,-0.05 -3.445,-0.15c-0.984,-0.1 -1.832,-0.253 -2.543,-0.458c-0.711,-0.205 -1.299,-0.465 -1.764,-0.78c-0.465,-0.314 -0.836,-0.683 -1.114,-1.107c-0.278,-0.424 -0.472,-0.907 -0.581,-1.449c-0.109,-0.542 -0.164,-1.142 -0.164,-1.798l2.625,0c0,0.82 0.118,1.463 0.355,1.928c0.237,0.465 0.629,0.813 1.176,1.046c0.547,0.232 1.265,0.378 2.153,0.437c0.889,0.059 1.99,0.089 3.302,0.089l3.5,0c1.532,0 2.803,-0.073 3.815,-0.219c1.011,-0.146 1.818,-0.378 2.42,-0.697c0.601,-0.319 1.025,-0.736 1.271,-1.251c0.246,-0.515 0.369,-1.142 0.369,-1.88c0,-0.738 -0.084,-1.353 -0.253,-1.846c-0.168,-0.492 -0.501,-0.884 -0.998,-1.175c-0.496,-0.292 -1.196,-0.499 -2.098,-0.622c-0.903,-0.123 -2.083,-0.185 -3.541,-0.185l-3.61,0c-1.604,0 -2.978,-0.059 -4.122,-0.178c-1.144,-0.118 -2.103,-0.289 -2.878,-0.512c-0.774,-0.224 -1.394,-0.502 -1.859,-0.834c-0.465,-0.333 -0.818,-0.714 -1.06,-1.142c-0.241,-0.428 -0.398,-0.905 -0.471,-1.429c-0.073,-0.524 -0.11,-1.091 -0.11,-1.702c0,-0.638 0.057,-1.23 0.171,-1.777c0.114,-0.547 0.326,-1.042 0.636,-1.484c0.31,-0.442 0.734,-0.836 1.271,-1.182c0.538,-0.347 1.229,-0.636 2.072,-0.868c0.843,-0.233 1.857,-0.408 3.042,-0.527c1.185,-0.118 2.579,-0.178 4.183,-0.178l2.625,0c1.313,0 2.461,0.048 3.446,0.144c0.984,0.096 1.832,0.246 2.543,0.451c0.71,0.205 1.301,0.461 1.77,0.766c0.469,0.305 0.843,0.67 1.121,1.094c0.278,0.423 0.472,0.904 0.581,1.442c0.11,0.538 0.164,1.135 0.164,1.791l-2.625,0c0,-0.82 -0.118,-1.463 -0.355,-1.928c-0.237,-0.465 -0.629,-0.813 -1.176,-1.046c-0.547,-0.232 -1.267,-0.378 -2.16,-0.437c-0.893,-0.059 -1.996,-0.089 -3.309,-0.089l-2.625,0c-1.75,0 -3.19,0.062 -4.32,0.185c-1.13,0.123 -2.023,0.33 -2.68,0.622c-0.656,0.291 -1.112,0.683 -1.367,1.175c-0.255,0.493 -0.383,1.108 -0.383,1.846c0,0.456 0.032,0.861 0.096,1.217c0.064,0.355 0.194,0.668 0.39,0.936c0.196,0.269 0.471,0.495 0.827,0.677c0.355,0.182 0.825,0.333 1.408,0.451c0.583,0.119 1.297,0.203 2.14,0.253c0.843,0.05 1.848,0.075 3.014,0.075l3.61,0zm34.453,7l-16.625,0l-2.625,4.813l-3.063,0l12.25,-21l3.5,0l12.25,21l-3.062,0l-2.625,-4.813m-1.313,-2.187l-7,-12.25l-7,12.25l14,0zm10.5,-14l2.625,0l0,21l-2.625,0l0,-21zm29.737,6.562c0,-1.093 -0.119,-1.959 -0.356,-2.597c-0.237,-0.638 -0.629,-1.121 -1.176,-1.449c-0.547,-0.329 -1.264,-0.538 -2.153,-0.629c-0.889,-0.091 -1.989,-0.137 -3.302,-0.137l-6.138,0c-1.167,0 -2.149,0.034 -2.947,0.103c-0.797,0.068 -1.456,0.207 -1.975,0.417c-0.52,0.209 -0.921,0.51 -1.203,0.902c-0.283,0.392 -0.488,0.911 -0.616,1.558c-0.127,0.648 -0.2,1.443 -0.218,2.386c-0.019,0.944 -0.028,2.071 -0.028,3.384c0,1.312 0.012,2.44 0.034,3.384c0.023,0.943 0.098,1.738 0.226,2.386c0.128,0.647 0.33,1.166 0.608,1.558c0.278,0.392 0.677,0.693 1.197,0.902c0.519,0.21 1.178,0.349 1.975,0.417c0.798,0.069 1.78,0.103 2.947,0.103l6.138,0c1.021,0 1.901,-0.027 2.639,-0.082c0.738,-0.055 1.367,-0.155 1.887,-0.301c0.519,-0.146 0.938,-0.346 1.257,-0.601c0.319,-0.256 0.568,-0.577 0.746,-0.964c0.177,-0.388 0.298,-0.852 0.362,-1.395c0.064,-0.542 0.096,-1.178 0.096,-1.907l2.625,0c0,0.875 -0.055,1.666 -0.164,2.372c-0.11,0.706 -0.304,1.335 -0.582,1.887c-0.278,0.551 -0.649,1.027 -1.114,1.428c-0.465,0.402 -1.053,0.732 -1.763,0.992c-0.711,0.259 -1.559,0.451 -2.543,0.574c-0.985,0.123 -2.133,0.185 -3.446,0.185l-6.138,0c-1.605,0 -2.956,-0.098 -4.054,-0.294c-1.098,-0.196 -2.003,-0.493 -2.714,-0.889c-0.711,-0.397 -1.26,-0.896 -1.647,-1.497c-0.388,-0.602 -0.67,-1.308 -0.848,-2.119c-0.178,-0.812 -0.28,-1.728 -0.308,-2.748c-0.027,-1.021 -0.041,-2.151 -0.041,-3.391c0,-1.24 0.014,-2.37 0.041,-3.391c0.028,-1.02 0.13,-1.936 0.308,-2.748c0.178,-0.811 0.46,-1.517 0.848,-2.119c0.387,-0.601 0.936,-1.1 1.647,-1.497c0.711,-0.396 1.616,-0.693 2.714,-0.889c1.098,-0.196 2.449,-0.294 4.054,-0.294l6.138,0c1.313,0 2.461,0.062 3.446,0.185c0.984,0.123 1.832,0.31 2.543,0.561c0.71,0.25 1.298,0.567 1.763,0.95c0.465,0.383 0.836,0.834 1.114,1.353c0.278,0.52 0.472,1.108 0.582,1.764c0.109,0.656 0.164,1.385 0.164,2.187l-2.625,0z" fill="#000000" stroke-linecap="square" id="svg_20" stroke="null"/>
  </g>
 </g>
</svg>